total 80
drwxr-xr-x  16 bash  staff  544 Dec  2 12:08 data
-rw-r--r--@  1 bash  staff  209 Nov 29 13:06 git-addcommit-time.rb
-rw-r--r--   1 bash  staff  187 Dec  2 12:41 revisionare1.txt
-rw-r--r--   1 bash  staff    0 Dec  2 12:41 revisionare10.txt
-rw-r--r--   1 bash  staff  250 Dec  2 12:41 revisionare2.txt
-rw-r--r--   1 bash  staff  312 Dec  2 12:41 revisionare3.txt
-rw-r--r--   1 bash  staff  374 Dec  2 12:41 revisionare4.txt
-rw-r--r--   1 bash  staff  436 Dec  2 12:41 revisionare5.txt
-rw-r--r--   1 bash  staff  498 Dec  2 12:41 revisionare6.txt
-rw-r--r--   1 bash  staff  560 Dec  2 12:41 revisionare7.txt
-rw-r--r--   1 bash  staff  622 Dec  2 12:41 revisionare8.txt
-rw-r--r--   1 bash  staff  684 Dec  2 12:41 revisionare9.txt
