total 288
-rw-r--r--  1 bash  staff  19945 Dec  2 12:08 IJG_README
-rw-r--r--@ 1 bash  staff    210 Dec  2 12:43 git-addcommit-time.rb
-rw-r--r--  1 bash  staff  26432 Dec  2 12:08 lgpl-v21.txt
-rw-r--r--  1 bash  staff  25755 Dec  2 12:08 mpl-v11.txt
-rw-r--r--  1 bash  staff    376 Dec  2 12:44 revisionare1.txt
-rw-r--r--  1 bash  staff    944 Dec  2 12:44 revisionare10.txt
-rw-r--r--  1 bash  staff   1008 Dec  2 12:44 revisionare11.txt
-rw-r--r--  1 bash  staff   1072 Dec  2 12:44 revisionare12.txt
-rw-r--r--  1 bash  staff   1136 Dec  2 12:44 revisionare13.txt
-rw-r--r--  1 bash  staff   1200 Dec  2 12:44 revisionare14.txt
-rw-r--r--  1 bash  staff   1264 Dec  2 12:44 revisionare15.txt
-rw-r--r--  1 bash  staff      0 Dec  2 12:44 revisionare16.txt
-rw-r--r--  1 bash  staff    439 Dec  2 12:44 revisionare2.txt
-rw-r--r--  1 bash  staff    502 Dec  2 12:44 revisionare3.txt
-rw-r--r--  1 bash  staff    565 Dec  2 12:44 revisionare4.txt
-rw-r--r--  1 bash  staff    628 Dec  2 12:44 revisionare5.txt
-rw-r--r--  1 bash  staff    691 Dec  2 12:44 revisionare6.txt
-rw-r--r--  1 bash  staff    754 Dec  2 12:44 revisionare7.txt
-rw-r--r--  1 bash  staff    817 Dec  2 12:44 revisionare8.txt
-rw-r--r--  1 bash  staff    880 Dec  2 12:44 revisionare9.txt
-rw-r--r--  1 bash  staff   1288 Dec  2 12:08 webkit-bsd.txt
