total 512
-rw-r--r--  1 bash  staff  19945 Dec  2 12:08 IJG_README
-rw-r--r--@ 1 bash  staff    210 Dec  2 12:43 git-addcommit-time.rb
-rw-r--r--  1 bash  staff  26432 Dec  2 12:08 lgpl-v21.txt
-rw-r--r--  1 bash  staff  25755 Dec  2 12:08 mpl-v11.txt
-rw-r--r--  1 bash  staff    376 Dec  2 12:44 revisionare1.txt
-rw-r--r--  1 bash  staff    944 Dec  2 12:44 revisionare10.txt
-rw-r--r--  1 bash  staff   1008 Dec  2 12:44 revisionare11.txt
-rw-r--r--  1 bash  staff   1072 Dec  2 12:44 revisionare12.txt
-rw-r--r--  1 bash  staff   1136 Dec  2 12:44 revisionare13.txt
-rw-r--r--  1 bash  staff   1200 Dec  2 12:44 revisionare14.txt
-rw-r--r--  1 bash  staff   1264 Dec  2 12:44 revisionare15.txt
-rw-r--r--  1 bash  staff   1328 Dec  2 12:44 revisionare16.txt
-rw-r--r--  1 bash  staff   1392 Dec  2 12:44 revisionare17.txt
-rw-r--r--  1 bash  staff   1456 Dec  2 12:44 revisionare18.txt
-rw-r--r--  1 bash  staff   1520 Dec  2 12:44 revisionare19.txt
-rw-r--r--  1 bash  staff    439 Dec  2 12:44 revisionare2.txt
-rw-r--r--  1 bash  staff   1584 Dec  2 12:44 revisionare20.txt
-rw-r--r--  1 bash  staff   1648 Dec  2 12:44 revisionare21.txt
-rw-r--r--  1 bash  staff   1712 Dec  2 12:44 revisionare22.txt
-rw-r--r--  1 bash  staff   1776 Dec  2 12:44 revisionare23.txt
-rw-r--r--  1 bash  staff   1840 Dec  2 12:44 revisionare24.txt
-rw-r--r--  1 bash  staff   1904 Dec  2 12:44 revisionare25.txt
-rw-r--r--  1 bash  staff   1968 Dec  2 12:44 revisionare26.txt
-rw-r--r--  1 bash  staff   2032 Dec  2 12:44 revisionare27.txt
-rw-r--r--  1 bash  staff   2096 Dec  2 12:44 revisionare28.txt
-rw-r--r--  1 bash  staff   2160 Dec  2 12:44 revisionare29.txt
-rw-r--r--  1 bash  staff    502 Dec  2 12:44 revisionare3.txt
-rw-r--r--  1 bash  staff   2224 Dec  2 12:44 revisionare30.txt
-rw-r--r--  1 bash  staff   2288 Dec  2 12:44 revisionare31.txt
-rw-r--r--  1 bash  staff   2352 Dec  2 12:44 revisionare32.txt
-rw-r--r--  1 bash  staff   2416 Dec  2 12:44 revisionare33.txt
-rw-r--r--  1 bash  staff   2480 Dec  2 12:44 revisionare34.txt
-rw-r--r--  1 bash  staff   2544 Dec  2 12:44 revisionare35.txt
-rw-r--r--  1 bash  staff   2608 Dec  2 12:44 revisionare36.txt
-rw-r--r--  1 bash  staff   2672 Dec  2 12:44 revisionare37.txt
-rw-r--r--  1 bash  staff   2736 Dec  2 12:44 revisionare38.txt
-rw-r--r--  1 bash  staff   2800 Dec  2 12:44 revisionare39.txt
-rw-r--r--  1 bash  staff    565 Dec  2 12:44 revisionare4.txt
-rw-r--r--  1 bash  staff   2864 Dec  2 12:44 revisionare40.txt
-rw-r--r--  1 bash  staff   2928 Dec  2 12:44 revisionare41.txt
-rw-r--r--  1 bash  staff   2992 Dec  2 12:44 revisionare42.txt
-rw-r--r--  1 bash  staff   3056 Dec  2 12:44 revisionare43.txt
-rw-r--r--  1 bash  staff      0 Dec  2 12:44 revisionare44.txt
-rw-r--r--  1 bash  staff    628 Dec  2 12:44 revisionare5.txt
-rw-r--r--  1 bash  staff    691 Dec  2 12:44 revisionare6.txt
-rw-r--r--  1 bash  staff    754 Dec  2 12:44 revisionare7.txt
-rw-r--r--  1 bash  staff    817 Dec  2 12:44 revisionare8.txt
-rw-r--r--  1 bash  staff    880 Dec  2 12:44 revisionare9.txt
-rw-r--r--  1 bash  staff   1288 Dec  2 12:08 webkit-bsd.txt
