total 152
drwxr-xr-x  26 bash  staff    884 Dec  2 14:00 META-INF
-rw-r--r--   1 bash  staff  12638 Dec  2 12:51 epl-v10.html
-rw-r--r--   1 bash  staff   8230 Dec  2 12:51 feature.properties
-rw-r--r--   1 bash  staff    791 Dec  2 12:51 feature.xml
-rw-r--r--@  1 bash  staff    209 Dec  2 14:00 git-addcommit-time.rb
-rw-r--r--   1 bash  staff   9230 Dec  2 12:51 license.html
-rw-r--r--   1 bash  staff    443 Dec  2 14:00 revisionare1.txt
-rw-r--r--   1 bash  staff    508 Dec  2 14:00 revisionare2.txt
-rw-r--r--   1 bash  staff    572 Dec  2 14:00 revisionare3.txt
-rw-r--r--   1 bash  staff    636 Dec  2 14:00 revisionare4.txt
-rw-r--r--   1 bash  staff    700 Dec  2 14:00 revisionare5.txt
-rw-r--r--   1 bash  staff    764 Dec  2 14:00 revisionare6.txt
-rw-r--r--   1 bash  staff    828 Dec  2 14:00 revisionare7.txt
-rw-r--r--   1 bash  staff      0 Dec  2 14:00 revisionare8.txt
