total 96
drwxr-xr-x  26 bash  staff    884 Dec  2 14:00 META-INF
-rw-r--r--   1 bash  staff  12638 Dec  2 12:51 epl-v10.html
-rw-r--r--   1 bash  staff   8230 Dec  2 12:51 feature.properties
-rw-r--r--   1 bash  staff    791 Dec  2 12:51 feature.xml
-rw-r--r--@  1 bash  staff    209 Dec  2 14:00 git-addcommit-time.rb
-rw-r--r--   1 bash  staff   9230 Dec  2 12:51 license.html
-rw-r--r--   1 bash  staff      0 Dec  2 14:00 revisionare1.txt
