total 56
-rw-r--r--  1 bash  staff  7816 Dec  2 12:51 ECLIPSE_.RSA
-rw-r--r--  1 bash  staff   448 Dec  2 12:51 ECLIPSE_.SF
-rw-r--r--  1 bash  staff   391 Dec  2 12:51 MANIFEST.MF
-rw-r--r--@ 1 bash  staff   209 Dec  2 14:00 git-addcommit-time.rb
-rw-r--r--  1 bash  staff   310 Dec  2 14:00 revisionare1.txt
-rw-r--r--  1 bash  staff   372 Dec  2 14:00 revisionare2.txt
-rw-r--r--  1 bash  staff     0 Dec  2 14:00 revisionare3.txt
