total 96
-rw-r--r--@ 1 bash  staff   209 Dec  2 12:42 git-addcommit-time.rb
-rw-r--r--  1 bash  staff  5065 Dec  2 12:08 platform.xml
-rw-r--r--  1 bash  staff   196 Dec  2 12:42 revisionare1.txt
-rw-r--r--  1 bash  staff     0 Dec  2 12:42 revisionare10.txt
-rw-r--r--  1 bash  staff   258 Dec  2 12:42 revisionare2.txt
-rw-r--r--  1 bash  staff   320 Dec  2 12:42 revisionare3.txt
-rw-r--r--  1 bash  staff   382 Dec  2 12:42 revisionare4.txt
-rw-r--r--  1 bash  staff   444 Dec  2 12:42 revisionare5.txt
-rw-r--r--  1 bash  staff   506 Dec  2 12:42 revisionare6.txt
-rw-r--r--  1 bash  staff   568 Dec  2 12:42 revisionare7.txt
-rw-r--r--  1 bash  staff   630 Dec  2 12:42 revisionare8.txt
-rw-r--r--  1 bash  staff   692 Dec  2 12:42 revisionare9.txt
