total 1136
-rw-r--r--   1 bash  staff   905 Dec  2 12:51 config.ini
-rw-r--r--@  1 bash  staff   210 Dec  2 14:02 git-addcommit-time.rb
drwxr-xr-x   5 bash  staff   170 Dec  2 13:59 org.eclipse.equinox.simpleconfigurator
drwxr-xr-x   5 bash  staff   170 Dec  2 13:59 org.eclipse.equinox.source
drwxr-xr-x  23 bash  staff   782 Dec  2 12:51 org.eclipse.update
-rw-r--r--   1 bash  staff   414 Dec  2 14:05 revisionare1.txt
-rw-r--r--   1 bash  staff   973 Dec  2 14:05 revisionare10.txt
-rw-r--r--   1 bash  staff     0 Dec  2 14:05 revisionare100.txt
-rw-r--r--   1 bash  staff  1036 Dec  2 14:05 revisionare11.txt
-rw-r--r--   1 bash  staff  1117 Dec  2 14:05 revisionare12.txt
-rw-r--r--   1 bash  staff  1181 Dec  2 14:05 revisionare13.txt
-rw-r--r--   1 bash  staff  1245 Dec  2 14:05 revisionare14.txt
-rw-r--r--   1 bash  staff  1309 Dec  2 14:05 revisionare15.txt
-rw-r--r--   1 bash  staff  1373 Dec  2 14:05 revisionare16.txt
-rw-r--r--   1 bash  staff  1437 Dec  2 14:05 revisionare17.txt
-rw-r--r--   1 bash  staff  1501 Dec  2 14:05 revisionare18.txt
-rw-r--r--   1 bash  staff  1565 Dec  2 14:05 revisionare19.txt
-rw-r--r--   1 bash  staff   476 Dec  2 14:05 revisionare2.txt
-rw-r--r--   1 bash  staff  1629 Dec  2 14:05 revisionare20.txt
-rw-r--r--   1 bash  staff  1693 Dec  2 14:05 revisionare21.txt
-rw-r--r--   1 bash  staff  1757 Dec  2 14:05 revisionare22.txt
-rw-r--r--   1 bash  staff  1821 Dec  2 14:05 revisionare23.txt
-rw-r--r--   1 bash  staff  1885 Dec  2 14:05 revisionare24.txt
-rw-r--r--   1 bash  staff  1949 Dec  2 14:05 revisionare25.txt
-rw-r--r--   1 bash  staff  2013 Dec  2 14:05 revisionare26.txt
-rw-r--r--   1 bash  staff  2077 Dec  2 14:05 revisionare27.txt
-rw-r--r--   1 bash  staff  2141 Dec  2 14:05 revisionare28.txt
-rw-r--r--   1 bash  staff  2205 Dec  2 14:05 revisionare29.txt
-rw-r--r--   1 bash  staff   538 Dec  2 14:05 revisionare3.txt
-rw-r--r--   1 bash  staff  2269 Dec  2 14:05 revisionare30.txt
-rw-r--r--   1 bash  staff  2333 Dec  2 14:05 revisionare31.txt
-rw-r--r--   1 bash  staff  2397 Dec  2 14:05 revisionare32.txt
-rw-r--r--   1 bash  staff  2461 Dec  2 14:05 revisionare33.txt
-rw-r--r--   1 bash  staff  2525 Dec  2 14:05 revisionare34.txt
-rw-r--r--   1 bash  staff  2589 Dec  2 14:05 revisionare35.txt
-rw-r--r--   1 bash  staff  2653 Dec  2 14:05 revisionare36.txt
-rw-r--r--   1 bash  staff  2717 Dec  2 14:05 revisionare37.txt
-rw-r--r--   1 bash  staff  2781 Dec  2 14:05 revisionare38.txt
-rw-r--r--   1 bash  staff  2845 Dec  2 14:05 revisionare39.txt
-rw-r--r--   1 bash  staff   600 Dec  2 14:05 revisionare4.txt
-rw-r--r--   1 bash  staff  2909 Dec  2 14:05 revisionare40.txt
-rw-r--r--   1 bash  staff  2973 Dec  2 14:05 revisionare41.txt
-rw-r--r--   1 bash  staff  3037 Dec  2 14:05 revisionare42.txt
-rw-r--r--   1 bash  staff  3101 Dec  2 14:05 revisionare43.txt
-rw-r--r--   1 bash  staff  3165 Dec  2 14:05 revisionare44.txt
-rw-r--r--   1 bash  staff  3229 Dec  2 14:05 revisionare45.txt
-rw-r--r--   1 bash  staff  3293 Dec  2 14:05 revisionare46.txt
-rw-r--r--   1 bash  staff  3357 Dec  2 14:05 revisionare47.txt
-rw-r--r--   1 bash  staff  3421 Dec  2 14:05 revisionare48.txt
-rw-r--r--   1 bash  staff  3485 Dec  2 14:05 revisionare49.txt
-rw-r--r--   1 bash  staff   662 Dec  2 14:05 revisionare5.txt
-rw-r--r--   1 bash  staff  3549 Dec  2 14:05 revisionare50.txt
-rw-r--r--   1 bash  staff  3613 Dec  2 14:05 revisionare51.txt
-rw-r--r--   1 bash  staff  3677 Dec  2 14:05 revisionare52.txt
-rw-r--r--   1 bash  staff  3741 Dec  2 14:05 revisionare53.txt
-rw-r--r--   1 bash  staff  3805 Dec  2 14:05 revisionare54.txt
-rw-r--r--   1 bash  staff  3869 Dec  2 14:05 revisionare55.txt
-rw-r--r--   1 bash  staff  3933 Dec  2 14:05 revisionare56.txt
-rw-r--r--   1 bash  staff  3997 Dec  2 14:05 revisionare57.txt
-rw-r--r--   1 bash  staff  4061 Dec  2 14:05 revisionare58.txt
-rw-r--r--   1 bash  staff  4125 Dec  2 14:05 revisionare59.txt
-rw-r--r--   1 bash  staff   724 Dec  2 14:05 revisionare6.txt
-rw-r--r--   1 bash  staff  4189 Dec  2 14:05 revisionare60.txt
-rw-r--r--   1 bash  staff  4253 Dec  2 14:05 revisionare61.txt
-rw-r--r--   1 bash  staff  4317 Dec  2 14:05 revisionare62.txt
-rw-r--r--   1 bash  staff  4381 Dec  2 14:05 revisionare63.txt
-rw-r--r--   1 bash  staff  4445 Dec  2 14:05 revisionare64.txt
-rw-r--r--   1 bash  staff  4509 Dec  2 14:05 revisionare65.txt
-rw-r--r--   1 bash  staff  4573 Dec  2 14:05 revisionare66.txt
-rw-r--r--   1 bash  staff  4637 Dec  2 14:05 revisionare67.txt
-rw-r--r--   1 bash  staff  4701 Dec  2 14:05 revisionare68.txt
-rw-r--r--   1 bash  staff  4765 Dec  2 14:05 revisionare69.txt
-rw-r--r--   1 bash  staff   786 Dec  2 14:05 revisionare7.txt
-rw-r--r--   1 bash  staff  4829 Dec  2 14:05 revisionare70.txt
-rw-r--r--   1 bash  staff  4893 Dec  2 14:05 revisionare71.txt
-rw-r--r--   1 bash  staff  4957 Dec  2 14:05 revisionare72.txt
-rw-r--r--   1 bash  staff  5021 Dec  2 14:05 revisionare73.txt
-rw-r--r--   1 bash  staff  5085 Dec  2 14:05 revisionare74.txt
-rw-r--r--   1 bash  staff  5149 Dec  2 14:05 revisionare75.txt
-rw-r--r--   1 bash  staff  5213 Dec  2 14:05 revisionare76.txt
-rw-r--r--   1 bash  staff  5277 Dec  2 14:05 revisionare77.txt
-rw-r--r--   1 bash  staff  5341 Dec  2 14:05 revisionare78.txt
-rw-r--r--   1 bash  staff  5405 Dec  2 14:05 revisionare79.txt
-rw-r--r--   1 bash  staff   848 Dec  2 14:05 revisionare8.txt
-rw-r--r--   1 bash  staff  5469 Dec  2 14:05 revisionare80.txt
-rw-r--r--   1 bash  staff  5533 Dec  2 14:05 revisionare81.txt
-rw-r--r--   1 bash  staff  5597 Dec  2 14:05 revisionare82.txt
-rw-r--r--   1 bash  staff  5661 Dec  2 14:05 revisionare83.txt
-rw-r--r--   1 bash  staff  5725 Dec  2 14:05 revisionare84.txt
-rw-r--r--   1 bash  staff  5789 Dec  2 14:05 revisionare85.txt
-rw-r--r--   1 bash  staff  5853 Dec  2 14:05 revisionare86.txt
-rw-r--r--   1 bash  staff  5917 Dec  2 14:05 revisionare87.txt
-rw-r--r--   1 bash  staff  5981 Dec  2 14:05 revisionare88.txt
-rw-r--r--   1 bash  staff  6045 Dec  2 14:05 revisionare89.txt
-rw-r--r--   1 bash  staff   910 Dec  2 14:05 revisionare9.txt
-rw-r--r--   1 bash  staff  6109 Dec  2 14:05 revisionare90.txt
-rw-r--r--   1 bash  staff  6173 Dec  2 14:05 revisionare91.txt
-rw-r--r--   1 bash  staff  6238 Dec  2 14:05 revisionare92.txt
-rw-r--r--   1 bash  staff  6302 Dec  2 14:05 revisionare93.txt
-rw-r--r--   1 bash  staff  6366 Dec  2 14:05 revisionare94.txt
-rw-r--r--   1 bash  staff  6430 Dec  2 14:05 revisionare95.txt
-rw-r--r--   1 bash  staff  6494 Dec  2 14:05 revisionare96.txt
-rw-r--r--   1 bash  staff  6558 Dec  2 14:05 revisionare97.txt
-rw-r--r--   1 bash  staff  6622 Dec  2 14:05 revisionare98.txt
-rw-r--r--   1 bash  staff  6686 Dec  2 14:05 revisionare99.txt
