total 336
-rw-r--r--   1 bash  staff   905 Dec  2 12:51 config.ini
-rw-r--r--@  1 bash  staff   210 Dec  2 14:02 git-addcommit-time.rb
drwxr-xr-x   5 bash  staff   170 Dec  2 13:59 org.eclipse.equinox.simpleconfigurator
drwxr-xr-x   5 bash  staff   170 Dec  2 13:59 org.eclipse.equinox.source
drwxr-xr-x  23 bash  staff   782 Dec  2 12:51 org.eclipse.update
-rw-r--r--   1 bash  staff   414 Dec  2 14:05 revisionare1.txt
-rw-r--r--   1 bash  staff   973 Dec  2 14:05 revisionare10.txt
-rw-r--r--   1 bash  staff  1036 Dec  2 14:05 revisionare11.txt
-rw-r--r--   1 bash  staff  1117 Dec  2 14:05 revisionare12.txt
-rw-r--r--   1 bash  staff  1181 Dec  2 14:05 revisionare13.txt
-rw-r--r--   1 bash  staff  1245 Dec  2 14:05 revisionare14.txt
-rw-r--r--   1 bash  staff  1309 Dec  2 14:05 revisionare15.txt
-rw-r--r--   1 bash  staff  1373 Dec  2 14:05 revisionare16.txt
-rw-r--r--   1 bash  staff  1437 Dec  2 14:05 revisionare17.txt
-rw-r--r--   1 bash  staff  1501 Dec  2 14:05 revisionare18.txt
-rw-r--r--   1 bash  staff  1565 Dec  2 14:05 revisionare19.txt
-rw-r--r--   1 bash  staff   476 Dec  2 14:05 revisionare2.txt
-rw-r--r--   1 bash  staff  1629 Dec  2 14:05 revisionare20.txt
-rw-r--r--   1 bash  staff  1693 Dec  2 14:05 revisionare21.txt
-rw-r--r--   1 bash  staff  1757 Dec  2 14:05 revisionare22.txt
-rw-r--r--   1 bash  staff  1821 Dec  2 14:05 revisionare23.txt
-rw-r--r--   1 bash  staff  1885 Dec  2 14:05 revisionare24.txt
-rw-r--r--   1 bash  staff  1949 Dec  2 14:05 revisionare25.txt
-rw-r--r--   1 bash  staff  2013 Dec  2 14:05 revisionare26.txt
-rw-r--r--   1 bash  staff  2077 Dec  2 14:05 revisionare27.txt
-rw-r--r--   1 bash  staff  2141 Dec  2 14:05 revisionare28.txt
-rw-r--r--   1 bash  staff  2205 Dec  2 14:05 revisionare29.txt
-rw-r--r--   1 bash  staff   538 Dec  2 14:05 revisionare3.txt
-rw-r--r--   1 bash  staff  2269 Dec  2 14:05 revisionare30.txt
-rw-r--r--   1 bash  staff  2333 Dec  2 14:05 revisionare31.txt
-rw-r--r--   1 bash  staff  2397 Dec  2 14:05 revisionare32.txt
-rw-r--r--   1 bash  staff  2461 Dec  2 14:05 revisionare33.txt
-rw-r--r--   1 bash  staff  2525 Dec  2 14:05 revisionare34.txt
-rw-r--r--   1 bash  staff  2589 Dec  2 14:05 revisionare35.txt
-rw-r--r--   1 bash  staff  2653 Dec  2 14:05 revisionare36.txt
-rw-r--r--   1 bash  staff  2717 Dec  2 14:05 revisionare37.txt
-rw-r--r--   1 bash  staff  2781 Dec  2 14:05 revisionare38.txt
-rw-r--r--   1 bash  staff  2845 Dec  2 14:05 revisionare39.txt
-rw-r--r--   1 bash  staff   600 Dec  2 14:05 revisionare4.txt
-rw-r--r--   1 bash  staff  2909 Dec  2 14:05 revisionare40.txt
-rw-r--r--   1 bash  staff     0 Dec  2 14:05 revisionare41.txt
-rw-r--r--   1 bash  staff   662 Dec  2 14:05 revisionare5.txt
-rw-r--r--   1 bash  staff   724 Dec  2 14:05 revisionare6.txt
-rw-r--r--   1 bash  staff   786 Dec  2 14:05 revisionare7.txt
-rw-r--r--   1 bash  staff   848 Dec  2 14:05 revisionare8.txt
-rw-r--r--   1 bash  staff   910 Dec  2 14:05 revisionare9.txt
