total 880
-rw-r--r--@ 1 bash  staff    210 Dec  2 14:02 git-addcommit-time.rb
-rw-r--r--@ 1 bash  staff    208 Nov 29 13:20 one-commit.rb
-rw-r--r--  1 bash  staff    258 Dec  2 14:05 revisionare1.txt
-rw-r--r--  1 bash  staff    827 Dec  2 14:05 revisionare10.txt
-rw-r--r--  1 bash  staff    891 Dec  2 14:05 revisionare11.txt
-rw-r--r--  1 bash  staff    955 Dec  2 14:05 revisionare12.txt
-rw-r--r--  1 bash  staff   1019 Dec  2 14:05 revisionare13.txt
-rw-r--r--  1 bash  staff   1083 Dec  2 14:05 revisionare14.txt
-rw-r--r--  1 bash  staff   1147 Dec  2 14:05 revisionare15.txt
-rw-r--r--  1 bash  staff   1211 Dec  2 14:05 revisionare16.txt
-rw-r--r--  1 bash  staff   1275 Dec  2 14:05 revisionare17.txt
-rw-r--r--  1 bash  staff   1339 Dec  2 14:05 revisionare18.txt
-rw-r--r--  1 bash  staff   1403 Dec  2 14:05 revisionare19.txt
-rw-r--r--  1 bash  staff    321 Dec  2 14:05 revisionare2.txt
-rw-r--r--  1 bash  staff   1467 Dec  2 14:05 revisionare20.txt
-rw-r--r--  1 bash  staff   1531 Dec  2 14:05 revisionare21.txt
-rw-r--r--  1 bash  staff   1595 Dec  2 14:05 revisionare22.txt
-rw-r--r--  1 bash  staff   1659 Dec  2 14:05 revisionare23.txt
-rw-r--r--  1 bash  staff   1723 Dec  2 14:05 revisionare24.txt
-rw-r--r--  1 bash  staff   1787 Dec  2 14:05 revisionare25.txt
-rw-r--r--  1 bash  staff   1851 Dec  2 14:05 revisionare26.txt
-rw-r--r--  1 bash  staff   1915 Dec  2 14:05 revisionare27.txt
-rw-r--r--  1 bash  staff   1979 Dec  2 14:05 revisionare28.txt
-rw-r--r--  1 bash  staff   2043 Dec  2 14:05 revisionare29.txt
-rw-r--r--  1 bash  staff    384 Dec  2 14:05 revisionare3.txt
-rw-r--r--  1 bash  staff   2107 Dec  2 14:05 revisionare30.txt
-rw-r--r--  1 bash  staff   2171 Dec  2 14:05 revisionare31.txt
-rw-r--r--  1 bash  staff   2235 Dec  2 14:05 revisionare32.txt
-rw-r--r--  1 bash  staff   2299 Dec  2 14:05 revisionare33.txt
-rw-r--r--  1 bash  staff   2363 Dec  2 14:05 revisionare34.txt
-rw-r--r--  1 bash  staff   2427 Dec  2 14:05 revisionare35.txt
-rw-r--r--  1 bash  staff   2491 Dec  2 14:05 revisionare36.txt
-rw-r--r--  1 bash  staff   2555 Dec  2 14:05 revisionare37.txt
-rw-r--r--  1 bash  staff   2619 Dec  2 14:05 revisionare38.txt
-rw-r--r--  1 bash  staff   2683 Dec  2 14:05 revisionare39.txt
-rw-r--r--  1 bash  staff    447 Dec  2 14:05 revisionare4.txt
-rw-r--r--  1 bash  staff   2747 Dec  2 14:05 revisionare40.txt
-rw-r--r--  1 bash  staff   2811 Dec  2 14:05 revisionare41.txt
-rw-r--r--  1 bash  staff   2875 Dec  2 14:05 revisionare42.txt
-rw-r--r--  1 bash  staff   2939 Dec  2 14:05 revisionare43.txt
-rw-r--r--  1 bash  staff   3003 Dec  2 14:05 revisionare44.txt
-rw-r--r--  1 bash  staff   3067 Dec  2 14:05 revisionare45.txt
-rw-r--r--  1 bash  staff   3131 Dec  2 14:05 revisionare46.txt
-rw-r--r--  1 bash  staff   3195 Dec  2 14:05 revisionare47.txt
-rw-r--r--  1 bash  staff   3259 Dec  2 14:05 revisionare48.txt
-rw-r--r--  1 bash  staff   3323 Dec  2 14:05 revisionare49.txt
-rw-r--r--  1 bash  staff    511 Dec  2 14:05 revisionare5.txt
-rw-r--r--  1 bash  staff   3387 Dec  2 14:05 revisionare50.txt
-rw-r--r--  1 bash  staff   3451 Dec  2 14:05 revisionare51.txt
-rw-r--r--  1 bash  staff   3515 Dec  2 14:05 revisionare52.txt
-rw-r--r--  1 bash  staff   3579 Dec  2 14:05 revisionare53.txt
-rw-r--r--  1 bash  staff   3643 Dec  2 14:05 revisionare54.txt
-rw-r--r--  1 bash  staff   3707 Dec  2 14:05 revisionare55.txt
-rw-r--r--  1 bash  staff   3771 Dec  2 14:05 revisionare56.txt
-rw-r--r--  1 bash  staff   3835 Dec  2 14:05 revisionare57.txt
-rw-r--r--  1 bash  staff   3899 Dec  2 14:05 revisionare58.txt
-rw-r--r--  1 bash  staff   3963 Dec  2 14:05 revisionare59.txt
-rw-r--r--  1 bash  staff    574 Dec  2 14:05 revisionare6.txt
-rw-r--r--  1 bash  staff   4027 Dec  2 14:05 revisionare60.txt
-rw-r--r--  1 bash  staff   4091 Dec  2 14:05 revisionare61.txt
-rw-r--r--  1 bash  staff   4155 Dec  2 14:05 revisionare62.txt
-rw-r--r--  1 bash  staff   4219 Dec  2 14:05 revisionare63.txt
-rw-r--r--  1 bash  staff   4283 Dec  2 14:05 revisionare64.txt
-rw-r--r--  1 bash  staff   4347 Dec  2 14:05 revisionare65.txt
-rw-r--r--  1 bash  staff   4411 Dec  2 14:05 revisionare66.txt
-rw-r--r--  1 bash  staff   4475 Dec  2 14:05 revisionare67.txt
-rw-r--r--  1 bash  staff   4539 Dec  2 14:05 revisionare68.txt
-rw-r--r--  1 bash  staff   4603 Dec  2 14:05 revisionare69.txt
-rw-r--r--  1 bash  staff    637 Dec  2 14:05 revisionare7.txt
-rw-r--r--  1 bash  staff   4667 Dec  2 14:05 revisionare70.txt
-rw-r--r--  1 bash  staff   4731 Dec  2 14:05 revisionare71.txt
-rw-r--r--  1 bash  staff   4795 Dec  2 14:05 revisionare72.txt
-rw-r--r--  1 bash  staff   4859 Dec  2 14:05 revisionare73.txt
-rw-r--r--  1 bash  staff   4923 Dec  2 14:05 revisionare74.txt
-rw-r--r--  1 bash  staff   4987 Dec  2 14:05 revisionare75.txt
-rw-r--r--  1 bash  staff   5051 Dec  2 14:05 revisionare76.txt
-rw-r--r--  1 bash  staff   5115 Dec  2 14:05 revisionare77.txt
-rw-r--r--  1 bash  staff   5179 Dec  2 14:05 revisionare78.txt
-rw-r--r--  1 bash  staff   5243 Dec  2 14:05 revisionare79.txt
-rw-r--r--  1 bash  staff    700 Dec  2 14:05 revisionare8.txt
-rw-r--r--  1 bash  staff   5307 Dec  2 14:05 revisionare80.txt
-rw-r--r--  1 bash  staff   5371 Dec  2 14:05 revisionare81.txt
-rw-r--r--  1 bash  staff      0 Dec  2 14:05 revisionare82.txt
-rw-r--r--  1 bash  staff    763 Dec  2 14:05 revisionare9.txt
-rw-r--r--  1 bash  staff  26959 Dec  2 12:51 source.info
