total 104
-rw-r--r--@ 1 bash  staff    210 Dec  2 14:02 git-addcommit-time.rb
-rw-r--r--@ 1 bash  staff    208 Nov 29 13:20 one-commit.rb
-rw-r--r--  1 bash  staff    258 Dec  2 14:05 revisionare1.txt
-rw-r--r--  1 bash  staff    321 Dec  2 14:05 revisionare2.txt
-rw-r--r--  1 bash  staff    384 Dec  2 14:05 revisionare3.txt
-rw-r--r--  1 bash  staff    447 Dec  2 14:05 revisionare4.txt
-rw-r--r--  1 bash  staff      0 Dec  2 14:05 revisionare5.txt
-rw-r--r--  1 bash  staff  26959 Dec  2 12:51 source.info
