total 216
-rw-r--r--@ 1 bash  staff    210 Dec  2 14:02 git-addcommit-time.rb
-rw-r--r--@ 1 bash  staff    208 Nov 29 13:20 one-commit.rb
-rw-r--r--  1 bash  staff    258 Dec  2 14:05 revisionare1.txt
-rw-r--r--  1 bash  staff    827 Dec  2 14:05 revisionare10.txt
-rw-r--r--  1 bash  staff    891 Dec  2 14:05 revisionare11.txt
-rw-r--r--  1 bash  staff    955 Dec  2 14:05 revisionare12.txt
-rw-r--r--  1 bash  staff   1019 Dec  2 14:05 revisionare13.txt
-rw-r--r--  1 bash  staff   1083 Dec  2 14:05 revisionare14.txt
-rw-r--r--  1 bash  staff   1147 Dec  2 14:05 revisionare15.txt
-rw-r--r--  1 bash  staff   1211 Dec  2 14:05 revisionare16.txt
-rw-r--r--  1 bash  staff   1275 Dec  2 14:05 revisionare17.txt
-rw-r--r--  1 bash  staff   1339 Dec  2 14:05 revisionare18.txt
-rw-r--r--  1 bash  staff      0 Dec  2 14:05 revisionare19.txt
-rw-r--r--  1 bash  staff    321 Dec  2 14:05 revisionare2.txt
-rw-r--r--  1 bash  staff    384 Dec  2 14:05 revisionare3.txt
-rw-r--r--  1 bash  staff    447 Dec  2 14:05 revisionare4.txt
-rw-r--r--  1 bash  staff    511 Dec  2 14:05 revisionare5.txt
-rw-r--r--  1 bash  staff    574 Dec  2 14:05 revisionare6.txt
-rw-r--r--  1 bash  staff    637 Dec  2 14:05 revisionare7.txt
-rw-r--r--  1 bash  staff    700 Dec  2 14:05 revisionare8.txt
-rw-r--r--  1 bash  staff    763 Dec  2 14:05 revisionare9.txt
-rw-r--r--  1 bash  staff  26959 Dec  2 12:51 source.info
